60;Algeria;Алжир;28.0;3.0;
246;Alps;Альпы;46.0;10.0;
1;Andorra;андорра;42.5;1.5;
9;Angola;Ангола;-12.5;18.5;
5;Anguilla;Ангилья;18.25;-63.17;
11;Antarctica;Антарктида;-90.0;0.0;
12;Argentina;Аргентина;-34.0;-64.0;
7;Armenia;Армения;40.0;45.0;
16;Aruba;Аруба;12.5;-69.97;
10;Asia/Pacific Region;Азия / Тихоокеанский регион;35.0;105.0;
15;Australia;Австралия;-27.0;133.0;
17;Azerbaijan;Азербайджан;40.5;47.5;
31;Bahamas;Багамские;24.25;-76.0;
24;Bahrain;Бахрейн;26.0;50.55;
20;Bangladesh;Бангладеш;24.0;90.0;
19;Barbados;Барбадос;13.17;-59.53;
21;Belgium;Бельгия;50.83;4.0;
36;Belize;Белиз;17.25;-88.75;
26;Benin;Бенин;9.5;2.25;
27;Bermuda;Бермудские острова;32.33;-64.75;
32;Bhutan;Бутан;27.5;90.5;
34;Botswana;Ботсвана;-22.0;24.0;
33;Bouvet Island;Буве;-54.43;3.4;
30;Brazil;Бразилия;-10.0;-55.0;
28;Brunei Darussalam;Бруней-Даруссалам;4.5;114.67;
23;Bulgaria;Болгария;43.0;25.0;
22;Burkina Faso;Буркина-Фасо;13.0;-2.0;
25;Burundi;Бурунди;-3.5;30.0;
244;California;Калифорния;32.53333333333333;-114.13333333333334;
113;Cambodia;Камбоджа;13.0;105.0;
46;Cameroon;Камерун;6.0;12.0;
37;Canada;Канада;60.0;-95.0;
245;Caribbean;карибский;14.525555555555556;-75.81833333333333;
120;Cayman Islands;Каймановы острова;19.5;-80.5;
207;Chad;Чад;15.0;19.0;
45;Chile;Чили;-30.0;-71.0;
47;China;Китай;35.0;105.0;
48;Colombia;Колумбия;4.0;-72.0;
115;Comoros;Коморские;-12.17;44.25;
39;Congo;Конго;0.0;25.0;
41;Congo;Конго;-1.0;15.0;
49;Costa Rica;Коста-Рика;10.0;-84.0;
43;Cote D'Ivoire;Берег Слоновой Кости;8.0;-5.0;
50;Cuba;Куба;21.5;-80.0;
53;Cyprus;Кипр;35.0;33.0;
54;Czech Republic;Чешская Республика;49.75;15.5;
57;Denmark;Дания;56.0;10.0;
56;Djibouti;Джибути;11.5;43.0;
58;Dominica;Доминика;15.42;-61.33;
61;Ecuador;Эквадор;-2.0;-77.5;
63;Egypt;Египет;27.0;30.0;
203;El Salvador;Сальвадор;13.83;-88.92;
65;Eritrea;Эритрея;15.0;39.0;
62;Estonia;Эстония;59.0;26.0;
67;Ethiopia;Эфиопия;8.0;38.0;
68;Europe;Европа;47.0;8.0;
73;Faroe Islands;Фарерские острова;62.0;-7.0;
70;Fiji;Фиджи;-18.0;175.0;
69;Finland;Финляндия;64.0;26.0;
74;France;Франция;46.0;2.0;
170;French Polynesia;Французская Полинезия;-15.0;-140.0;
75;Gabon;Габон;-1.0;11.75;
83;Gambia;Гамбия;13.47;-16.57;
78;Georgia;Грузия;42.0;43.5;
55;Germany;Германия;51.0;9.0;
80;Ghana;Гана;8.0;-2.0;
87;Greece;Греция;39.0;22.0;
82;Greenland;Гренландия;72.0;-40.0;
77;Grenada;Гренада;12.12;-61.67;
85;Guadeloupe;Гваделупа;16.25;-61.58;
90;Guam;Гуам;13.47;144.78;
89;Guatemala;Гватемала;15.5;-90.25;
91;Guinea-Bissau;Гвинея-Бисау;12.0;-15.0;
92;Guyana;Гайана;5.0;-59.0;
97;Haiti;Гаити;19.0;-72.42;
95;Honduras;Гондурас;15.0;-86.5;
93;Hong Kong;Гонконг;22.25;114.17;
6;Albania;Албания;41.0;20.0;
102;India;Индия;20.0;77.0;
99;Indonesia;Индонезия;-5.0;120.0;
105;Iran;Я побежал;32.0;53.0;
104;Iraq;Ирак;33.0;44.0;
107;Italy;Италия;42.83;12.83;
108;Jamaica;Ямайка;18.25;-77.5;
110;Japan;Япония;36.0;138.0;
109;Jordan;Иордания;31.0;36.0;
121;Kazakstan;Казахстан;48.0;68.0;
111;Kenya;Кения;1.0;38.0;
117;Kore;Корея;40.0;127.0;
118;Korea;Корея;37.0;127.5;
119;Kuwait;Кувейт;29.34;47.66;
112;Kyrgyzstan;Киргизия;41.0;75.0;
131;Latvia;Латвия;57.0;25.0;
123;Lebanon;Ливан;33.83;35.83;
128;Lesotho;Лесото;-29.5;28.5;
127;Liberia;Либерия;6.5;-9.5;
125;Liechtenstein;Лихтенштейн;47.17;9.53;
129;Lithuania;Литва;56.0;24.0;
130;Luxembourg;Люксембург;49.75;6.17;
143;Macau;Макао;22.17;113.55;
139;Macedonia;Македония;41.83;22.0;
151;Malawi;Малави;-13.5;34.0;
153;Malaysia;Малайзия;2.5;112.5;
150;Maldives;Мальдивы;3.25;73.0;
140;Mali;Мали;17.0;-4.0;
148;Malta;Мальта;35.83;14.58;
145;Martinique;Мартиника;14.67;-61.0;
146;Mauritania;Мавритания;20.0;-12.0;
149;Mauritius;Маврикий;-20.28;57.55;
237;Mayotte;Майотта;-12.83;45.17;
152;Mexico;Мексика;23.0;-102.0;
72;Micronesia;Микронезия;6.92;158.25;
135;Moldova;Молдова;47.0;29.0;
142;Mongolia;Монголия;46.0;105.0;
136;Montenegro;Черногория;42.0;19.0;
147;Montserrat;Монтсеррат;16.75;-62.2;
133;Morocco;Марокко;32.0;-5.0;
141;Myanmar;Мьянма;22.0;98.0;
164;Nauru;Науру;-0.53;166.92;
163;Nepal;Непал;28.0;84.0;
161;Netherlands;Нидерланды;52.5;5.75;
156;New Caledonia;Новая Каледония;-21.5;165.5;
166;New Zealand;Новая Зеландия;-41.0;174.0;
160;Nicaragua;Никарагуа;13.0;-85.0;
157;Niger;Нигер;16.0;8.0;
159;Nigeria;Нигерия;10.0;8.0;
165;Niue;Ниуэ;-19.03;-169.87;
158;Norfolk Island;Остров Норфолк;-29.03;167.95;
162;Norway;Норвегия;62.0;10.0;
167;Oman;Оман;21.0;57.0;
173;Pakistan;Пакистан;30.0;70.0;
168;Panama;Панама;9.0;-80.0;
171;Papua New Guinea;Папуа - Новая Гвинея;-6.0;147.0;
180;Paraguay;Парагвай;-23.0;-58.0;
169;Peru;Перу;-10.0;-76.0;
174;Poland;Польша;52.0;20.0;
178;Portugal;Португалия;39.5;-8.0;
181;Qatar;Катар;25.5;51.25;
182;Reunion;воссоединение;-21.1;55.6;
183;Romania;Румыния;46.0;25.0;
185;Russian Federation;Российская Федерация;60.0;100.0;
186;Rwanda;Руанда;-2.0;30.0;
116;Saint Kitts and Nevis;Сент-Китс и Невис;17.33;-62.75;
124;Saint Lucia;Сент-Люсия;13.88;-61.13;
228;Saint Vincent and the Grenadines;Святой Винсент и Гренадины;13.25;-61.2;
235;Samoa;Самоа;-13.58;-172.33;
198;San Marino;Сан - Марино;43.77;12.42;
187;Saudi Arabia;Саудовская Аравия;25.0;45.0;
199;Senegal;Сенегал;14.0;-14.0;
184;Serbia;Сербия;44.0;21.0;
189;Seychelles;Сейшелы;-4.58;55.67;
192;Singapore;Сингапур;1.37;103.8;
196;Slovakia;Словакия;48.67;19.5;
194;Slovenia;Словения;46.0;15.0;
106;Iceland;Исландия;65.0;-18.0;
200;Somalia;Сомали;10.0;49.0;
238;South Africa;Южная Африка;-29.0;24.0;
66;Spain;Испания;40.0;-4.0;
190;Sudan;Судан;15.0;30.0;
201;Suriname;Суринам;4.0;-56.0;
205;Swaziland;Свазиленд;-26.5;31.5;
191;Sweden;Швеция;62.0;15.0;
42;Switzerland;Швейцария;47.0;8.0;
219;Taiwan;Тайвань;23.5;121.0;
211;Tajikistan;Таджикистан;39.0;71.0;
220;Tanzania;Танзания;-6.0;35.0;
210;Thailand;Таиланд;15.0;100.0;
209;Togo;Идти;8.0;1.17;
212;Tokelau;Токелау;-9.0;-172.0;
215;Tonga;Тонга;-20.0;-175.0;
214;Tunisia;Тунис;34.0;9.0;
216;Turkey;Турция;39.0;35.0;
213;Turkmenistan;Туркменистан;40.0;60.0;
206;Turks and Caicos Islands;Теркс и Кайкос;21.75;-71.58;
242;Tuscany;Тоскана;43.416666666666664;11.0;
218;Tuvalu;Тувалу;-8.0;178.0;
222;Uganda;Уганда;1.0;32.0;
2;United Arab Emirates;Объединенные Арабские Эмираты;24.0;54.0;
224;United States;Соединенные Штаты;38.0;-97.0;
223;United States Minor Outlying Islands;Внешние малые острова США;19.28;166.6;
241;Uraine;Ураине;0.0;0.0;
225;Uruguay;Уругвай;-33.0;-56.0;
233;Vanuatu;Вануату;-16.0;167.0;
229;Venezuela;Венесуэла;8.0;-66.0;
232;Vietnam;Вьетнам;16.0;106.0;
230;Virgin Islands (VG);Виргинские острова (VG);18.5;-64.5;
234;Wallis and Futuna;Уоллис и Футуна;-13.3;-176.2;
236;Yemen;Йемен;15.0;48.0;
239;Zambia;Замбия;-15.0;30.0;
240;Zimbabwe;Зимбабве;-20.0;30.0;
4;Antigua and Barbuda;Антигуа и Барбуда;17.05;-61.8;
14;Austria;Австрия;47.33;13.33;
35;Belarus;Беларусь;53.0;28.0;
29;Bolivia;Боливия;-17.0;-65.0;
103;British Indian Ocean Territory;Британская территория Индийского океана;-6.0;71.5;
51;Cape Verde;Кабо-Верде;16.0;-24.0;
40;Central African Republic;Центрально-Африканская Республика;7.0;21.0;
96;Croatia;Хорватия;45.17;15.5;
59;Dominican Republic;Доминиканская Республика;19.0;-70.67;
86;Equatorial Guinea;Экваториальная Гвинея;2.0;10.0;
79;French Guiana;Французская Гвиана;4.0;-53.0;
81;Gibraltar;Гибралтар;36.18;-5.37;
84;Guinea;Гвинея;11.0;-10.0;
227;Holy See (Vatican City State);Святой Престол (Ватикан);41.9;12.45;
100;Ireland;Ирландия;53.0;-8.0;
114;Kiribati;Кирибати;1.42;173.0;
122;Lao People's Democratic Republic;Лаосская Народно-Демократическая Республика;18.0;105.0;
137;Madagascar;Мадагаскар;-20.0;47.0;
138;Marshall Islands;Маршалловы острова;9.0;168.0;
134;Monaco;Монако;43.73;7.4;
154;Mozambique;Мозамбик;-18.25;35.0;
8;Netherlands Antilles;Нидерландские Антильские острова;12.25;-68.75;
144;Northern Mariana Islands;Северные Марианские острова;15.2;145.75;
172;Philippines;Филиппины;13.0;122.0;
243;Provence-Alpes-Cote d'Azur;Прованс-Альпы-Лазурный берег;43.7;7.25;
175;Saint Pierre and Miquelon;Сен-Пьер и Микелон;46.83;-56.33;
202;Sao Tome and Principe;Сан-Томе и Принсипи;1.0;7.0;
13;American Samoa;американское Самоа;-14.33;-170.0;
44;Cook Islands;Острова Кука;-21.23;-159.77;
71;Falkland Islands (Malvinas);Фолклендские (Мальвинские);-51.75;-59.0;
98;Hungary;Венгрия;47.0;20.0;
101;Israel;Израиль;31.5;34.75;
132;Libyan Arab Jamahiriya;Ливийская арабская джамахирия;25.0;17.0;
155;Namibia;Намибия;-22.0;17.0;
197;Sierra Leone;Сьерра-Леоне;8.5;-11.5;
188;Solomon Islands;Соломоновы острова;-8.0;159.0;
3;Afghanistan;Афганистан;33.0;65.0;
18;Bosnia and Herzegovina;Босния и Герцеговина;44.0;18.0;
94;Heard Island and McDonald Islands;Остров Херд и острова Макдональд;-53.1;72.52;
177;Palestinian Territory;Палестинская территория;32.0;35.25;
126;Sri Lanka;Шри Ланка;7.0;81.0;
204;Syrian Arab Republic;Сирийская Арабская Республика;35.0;38.0;
217;Trinidad and Tobago;Тринидад и Тобаго;11.0;-61.0;
221;Ukraine;Украина;49.0;32.0;
76;United Kingdom;Великобритания;54.0;-2.0;
226;Uzbekistan;Узбекистан;41.0;64.0;
231;Virgin Islands (VI);Виргинские острова (VI);18.33;-64.83;
