3;Afghanistan;33.00000000000000000;65.00000000000000000;
6;Albania;41.00000000000000000;20.00000000000000000;
60;Algeria;28.00000000000000000;3.00000000000000000;
246;Alps;46.00000000000000000;10.00000000000000000;
13;American Samoa;-14.33000000000000000;-170.00000000000000000;
1;Andorra;42.50000000000000000;1.50000000000000000;
9;Angola;-12.50000000000000000;18.50000000000000000;
5;Anguilla;18.25000000000000000;-63.17000000000000000;
11;Antarctica;-90.00000000000000000;0E-17;
4;Antigua and Barbuda;17.05000000000000000;-61.80000000000000000;
12;Argentina;-34.00000000000000000;-64.00000000000000000;
7;Armenia;40.00000000000000000;45.00000000000000000;
16;Aruba;12.50000000000000000;-69.97000000000000000;
10;Asia/Pacific Region;35.00000000000000000;105.00000000000000000;
15;Australia;-27.00000000000000000;133.00000000000000000;
14;Austria;47.33000000000000000;13.33000000000000000;
17;Azerbaijan;40.50000000000000000;47.50000000000000000;
31;Bahamas;24.25000000000000000;-76.00000000000000000;
24;Bahrain;26.00000000000000000;50.55000000000000000;
20;Bangladesh;24.00000000000000000;90.00000000000000000;
19;Barbados;13.17000000000000000;-59.53000000000000000;
35;Belarus;53.00000000000000000;28.00000000000000000;
21;Belgium;50.83000000000000000;4.00000000000000000;
36;Belize;17.25000000000000000;-88.75000000000000000;
26;Benin;9.50000000000000000;2.25000000000000000;
27;Bermuda;32.33000000000000000;-64.75000000000000000;
32;Bhutan;27.50000000000000000;90.50000000000000000;
29;Bolivia;-17.00000000000000000;-65.00000000000000000;
18;Bosnia and Herzegovina;44.00000000000000000;18.00000000000000000;
34;Botswana;-22.00000000000000000;24.00000000000000000;
33;Bouvet Island;-54.43000000000000000;3.40000000000000000;
30;Brazil;-10.00000000000000000;-55.00000000000000000;
103;British Indian Ocean Territory;-6.00000000000000000;71.50000000000000000;
28;Brunei Darussalam;4.50000000000000000;114.67000000000000000;
23;Bulgaria;43.00000000000000000;25.00000000000000000;
22;Burkina Faso;13.00000000000000000;-2.00000000000000000;
25;Burundi;-3.50000000000000000;30.00000000000000000;
244;California;32.53333333333333333;-114.13333333333333333;
113;Cambodia;13.00000000000000000;105.00000000000000000;
46;Cameroon;6.00000000000000000;12.00000000000000000;
37;Canada;60.00000000000000000;-95.00000000000000000;
51;Cape Verde;16.00000000000000000;-24.00000000000000000;
245;Caribbean;14.52555555555555550;-75.81833333333333333;
120;Cayman Islands;19.50000000000000000;-80.50000000000000000;
40;Central African Republic;7.00000000000000000;21.00000000000000000;
207;Chad;15.00000000000000000;19.00000000000000000;
45;Chile;-30.00000000000000000;-71.00000000000000000;
47;China;35.00000000000000000;105.00000000000000000;
48;Colombia;4.00000000000000000;-72.00000000000000000;
115;Comoros;-12.17000000000000000;44.25000000000000000;
39;Congo;0E-17;25.00000000000000000;
41;Congo;-1.00000000000000000;15.00000000000000000;
44;Cook Islands;-21.23000000000000000;-159.77000000000000000;
49;Costa Rica;10.00000000000000000;-84.00000000000000000;
43;Cote D'Ivoire;8.00000000000000000;-5.00000000000000000;
96;Croatia;45.17000000000000000;15.50000000000000000;
50;Cuba;21.50000000000000000;-80.00000000000000000;
53;Cyprus;35.00000000000000000;33.00000000000000000;
54;Czech Republic;49.75000000000000000;15.50000000000000000;
57;Denmark;56.00000000000000000;10.00000000000000000;
56;Djibouti;11.50000000000000000;43.00000000000000000;
58;Dominica;15.42000000000000000;-61.33000000000000000;
59;Dominican Republic;19.00000000000000000;-70.67000000000000000;
61;Ecuador;-2.00000000000000000;-77.50000000000000000;
63;Egypt;27.00000000000000000;30.00000000000000000;
203;El Salvador;13.83000000000000000;-88.92000000000000000;
86;Equatorial Guinea;2.00000000000000000;10.00000000000000000;
65;Eritrea;15.00000000000000000;39.00000000000000000;
62;Estonia;59.00000000000000000;26.00000000000000000;
67;Ethiopia;8.00000000000000000;38.00000000000000000;
68;Europe;47.00000000000000000;8.00000000000000000;
71;Falkland Islands (Malvinas);-51.75000000000000000;-59.00000000000000000;
73;Faroe Islands;62.00000000000000000;-7.00000000000000000;
70;Fiji;-18.00000000000000000;175.00000000000000000;
69;Finland;64.00000000000000000;26.00000000000000000;
74;France;46.00000000000000000;2.00000000000000000;
79;French Guiana;4.00000000000000000;-53.00000000000000000;
170;French Polynesia;-15.00000000000000000;-140.00000000000000000;
75;Gabon;-1.00000000000000000;11.75000000000000000;
83;Gambia;13.47000000000000000;-16.57000000000000000;
78;Georgia;42.00000000000000000;43.50000000000000000;
55;Germany;51.00000000000000000;9.00000000000000000;
80;Ghana;8.00000000000000000;-2.00000000000000000;
81;Gibraltar;36.18000000000000000;-5.37000000000000000;
87;Greece;39.00000000000000000;22.00000000000000000;
82;Greenland;72.00000000000000000;-40.00000000000000000;
77;Grenada;12.12000000000000000;-61.67000000000000000;
85;Guadeloupe;16.25000000000000000;-61.58000000000000000;
90;Guam;13.47000000000000000;144.78000000000000000;
89;Guatemala;15.50000000000000000;-90.25000000000000000;
84;Guinea;11.00000000000000000;-10.00000000000000000;
91;Guinea-Bissau;12.00000000000000000;-15.00000000000000000;
92;Guyana;5.00000000000000000;-59.00000000000000000;
97;Haiti;19.00000000000000000;-72.42000000000000000;
94;Heard Island and McDonald Islands;-53.10000000000000000;72.52000000000000000;
227;Holy See (Vatican City State);41.90000000000000000;12.45000000000000000;
95;Honduras;15.00000000000000000;-86.50000000000000000;
93;Hong Kong;22.25000000000000000;114.17000000000000000;
98;Hungary;47.00000000000000000;20.00000000000000000;
106;Iceland;65.00000000000000000;-18.00000000000000000;
102;India;20.00000000000000000;77.00000000000000000;
99;Indonesia;-5.00000000000000000;120.00000000000000000;
105;Iran;32.00000000000000000;53.00000000000000000;
104;Iraq;33.00000000000000000;44.00000000000000000;
100;Ireland;53.00000000000000000;-8.00000000000000000;
101;Israel;31.50000000000000000;34.75000000000000000;
107;Italy;42.83000000000000000;12.83000000000000000;
108;Jamaica;18.25000000000000000;-77.50000000000000000;
110;Japan;36.00000000000000000;138.00000000000000000;
109;Jordan;31.00000000000000000;36.00000000000000000;
121;Kazakstan;48.00000000000000000;68.00000000000000000;
111;Kenya;1.00000000000000000;38.00000000000000000;
114;Kiribati;1.42000000000000000;173.00000000000000000;
117;Kore;40.00000000000000000;127.00000000000000000;
118;Korea;37.00000000000000000;127.50000000000000000;
119;Kuwait;29.34000000000000000;47.66000000000000000;
112;Kyrgyzstan;41.00000000000000000;75.00000000000000000;
122;Lao People's Democratic Republic;18.00000000000000000;105.00000000000000000;
131;Latvia;57.00000000000000000;25.00000000000000000;
123;Lebanon;33.83000000000000000;35.83000000000000000;
128;Lesotho;-29.50000000000000000;28.50000000000000000;
127;Liberia;6.50000000000000000;-9.50000000000000000;
132;Libyan Arab Jamahiriya;25.00000000000000000;17.00000000000000000;
125;Liechtenstein;47.17000000000000000;9.52999999999999900;
129;Lithuania;56.00000000000000000;24.00000000000000000;
130;Luxembourg;49.75000000000000000;6.17000000000000000;
143;Macau;22.17000000000000000;113.55000000000000000;
139;Macedonia;41.83000000000000000;22.00000000000000000;
137;Madagascar;-20.00000000000000000;47.00000000000000000;
151;Malawi;-13.50000000000000000;34.00000000000000000;
153;Malaysia;2.50000000000000000;112.50000000000000000;
150;Maldives;3.25000000000000000;73.00000000000000000;
140;Mali;17.00000000000000000;-4.00000000000000000;
148;Malta;35.83000000000000000;14.58000000000000000;
138;Marshall Islands;9.00000000000000000;168.00000000000000000;
145;Martinique;14.67000000000000000;-61.00000000000000000;
146;Mauritania;20.00000000000000000;-12.00000000000000000;
149;Mauritius;-20.28000000000000000;57.55000000000000000;
237;Mayotte;-12.83000000000000000;45.17000000000000000;
152;Mexico;23.00000000000000000;-102.00000000000000000;
72;Micronesia;6.92000000000000000;158.25000000000000000;
135;Moldova;47.00000000000000000;29.00000000000000000;
134;Monaco;43.73000000000000000;7.40000000000000000;
142;Mongolia;46.00000000000000000;105.00000000000000000;
136;Montenegro;42.00000000000000000;19.00000000000000000;
147;Montserrat;16.75000000000000000;-62.20000000000000000;
133;Morocco;32.00000000000000000;-5.00000000000000000;
154;Mozambique;-18.25000000000000000;35.00000000000000000;
141;Myanmar;22.00000000000000000;98.00000000000000000;
155;Namibia;-22.00000000000000000;17.00000000000000000;
164;Nauru;-0.53000000000000000;166.92000000000000000;
163;Nepal;28.00000000000000000;84.00000000000000000;
161;Netherlands;52.50000000000000000;5.75000000000000000;
8;Netherlands Antilles;12.25000000000000000;-68.75000000000000000;
156;New Caledonia;-21.50000000000000000;165.50000000000000000;
166;New Zealand;-41.00000000000000000;174.00000000000000000;
160;Nicaragua;13.00000000000000000;-85.00000000000000000;
157;Niger;16.00000000000000000;8.00000000000000000;
159;Nigeria;10.00000000000000000;8.00000000000000000;
165;Niue;-19.03000000000000000;-169.87000000000000000;
158;Norfolk Island;-29.03000000000000000;167.95000000000000000;
144;Northern Mariana Islands;15.20000000000000000;145.75000000000000000;
162;Norway;62.00000000000000000;10.00000000000000000;
167;Oman;21.00000000000000000;57.00000000000000000;
173;Pakistan;30.00000000000000000;70.00000000000000000;
179;Palau;7.50000000000000000;134.50000000000000000;
177;Palestinian Territory;32.00000000000000000;35.25000000000000000;
168;Panama;9.00000000000000000;-80.00000000000000000;
171;Papua New Guinea;-6.00000000000000000;147.00000000000000000;
180;Paraguay;-23.00000000000000000;-58.00000000000000000;
169;Peru;-10.00000000000000000;-76.00000000000000000;
172;Philippines;13.00000000000000000;122.00000000000000000;
174;Poland;52.00000000000000000;20.00000000000000000;
178;Portugal;39.50000000000000000;-8.00000000000000000;
243;Provence-Alpes-Cote d'Azur;43.70000000000000000;7.25000000000000000;
176;Puerto Rico;18.25000000000000000;-66.50000000000000000;
181;Qatar;25.50000000000000000;51.25000000000000000;
182;Reunion;-21.10000000000000000;55.60000000000000000;
183;Romania;46.00000000000000000;25.00000000000000000;
185;Russian Federation;60.00000000000000000;100.00000000000000000;
186;Rwanda;-2.00000000000000000;30.00000000000000000;
116;Saint Kitts and Nevis;17.33000000000000000;-62.75000000000000000;
124;Saint Lucia;13.88000000000000000;-61.13000000000000000;
175;Saint Pierre and Miquelon;46.83000000000000000;-56.33000000000000000;
228;Saint Vincent and the Grenadines;13.25000000000000000;-61.20000000000000000;
235;Samoa;-13.58000000000000000;-172.33000000000000000;
198;San Marino;43.77000000000000000;12.42000000000000000;
202;Sao Tome and Principe;1.00000000000000000;7.00000000000000000;
187;Saudi Arabia;25.00000000000000000;45.00000000000000000;
199;Senegal;14.00000000000000000;-14.00000000000000000;
184;Serbia;44.00000000000000000;21.00000000000000000;
189;Seychelles;-4.58000000000000000;55.67000000000000000;
197;Sierra Leone;8.50000000000000000;-11.50000000000000000;
192;Singapore;1.37000000000000000;103.80000000000000000;
196;Slovakia;48.67000000000000000;19.50000000000000000;
194;Slovenia;46.00000000000000000;15.00000000000000000;
188;Solomon Islands;-8.00000000000000000;159.00000000000000000;
200;Somalia;10.00000000000000000;49.00000000000000000;
238;South Africa;-29.00000000000000000;24.00000000000000000;
66;Spain;40.00000000000000000;-4.00000000000000000;
126;Sri Lanka;7.00000000000000000;81.00000000000000000;
190;Sudan;15.00000000000000000;30.00000000000000000;
201;Suriname;4.00000000000000000;-56.00000000000000000;
205;Swaziland;-26.50000000000000000;31.50000000000000000;
191;Sweden;62.00000000000000000;15.00000000000000000;
42;Switzerland;47.00000000000000000;8.00000000000000000;
204;Syrian Arab Republic;35.00000000000000000;38.00000000000000000;
219;Taiwan;23.50000000000000000;121.00000000000000000;
211;Tajikistan;39.00000000000000000;71.00000000000000000;
220;Tanzania;-6.00000000000000000;35.00000000000000000;
210;Thailand;15.00000000000000000;100.00000000000000000;
209;Togo;8.00000000000000000;1.17000000000000000;
212;Tokelau;-9.00000000000000000;-172.00000000000000000;
215;Tonga;-20.00000000000000000;-175.00000000000000000;
217;Trinidad and Tobago;11.00000000000000000;-61.00000000000000000;
214;Tunisia;34.00000000000000000;9.00000000000000000;
216;Turkey;39.00000000000000000;35.00000000000000000;
213;Turkmenistan;40.00000000000000000;60.00000000000000000;
206;Turks and Caicos Islands;21.75000000000000000;-71.58000000000000000;
242;Tuscany;43.41666666666666666;11.00000000000000000;
218;Tuvalu;-8.00000000000000000;178.00000000000000000;
222;Uganda;1.00000000000000000;32.00000000000000000;
221;Ukraine;49.00000000000000000;32.00000000000000000;
2;United Arab Emirates;24.00000000000000000;54.00000000000000000;
76;United Kingdom;54.00000000000000000;-2.00000000000000000;
224;United States;38.00000000000000000;-97.00000000000000000;
223;United States Minor Outlying Islands;19.28000000000000000;166.60000000000000000;
241;Uraine;0E-17;0E-17;
225;Uruguay;-33.00000000000000000;-56.00000000000000000;
226;Uzbekistan;41.00000000000000000;64.00000000000000000;
233;Vanuatu;-16.00000000000000000;167.00000000000000000;
229;Venezuela;8.00000000000000000;-66.00000000000000000;
232;Vietnam;16.00000000000000000;106.00000000000000000;
230;Virgin Islands (VG);18.50000000000000000;-64.50000000000000000;
231;Virgin Islands (VI);18.33000000000000000;-64.83000000000000000;
234;Wallis and Futuna;-13.30000000000000000;-176.20000000000000000;
236;Yemen;15.00000000000000000;48.00000000000000000;
239;Zambia;-15.00000000000000000;30.00000000000000000;
240;Zimbabwe;-20.00000000000000000;30.00000000000000000;
